<svg xmlns="http://www.w3.org/2000/svg" width="66" height="66" viewBox="0 0 66 66">
  <metadata><?xpacket begin="﻿" id="W5M0MpCehiHzreSzNTczkc9d"?>
<x:xmpmeta xmlns:x="adobe:ns:meta/" x:xmptk="Adobe XMP Core 5.6-c138 79.159824, 2016/09/14-01:09:01        ">
   <rdf:RDF xmlns:rdf="http://www.w3.org/1999/02/22-rdf-syntax-ns#">
      <rdf:Description rdf:about=""/>
   </rdf:RDF>
</x:xmpmeta>
                                                                                                    
                                                                                                    
                                                                                                    
                                                                                                    
                                                                                                    
                                                                                                    
                                                                                                    
                                                                                                    
                                                                                                    
                                                                                                    
                                                                                                    
                                                                                                    
                                                                                                    
                                                                                                    
                                                                                                    
                                                                                                    
                                                                                                    
                                                                                                    
                                                                                                    
                                                                                                    
                           
<?xpacket end="w"?></metadata>
<defs>
    <style>
      .cls-1 {
        fill: #f38c2d;
        fill-rule: evenodd;
      }
    </style>
  </defs>
  <path id="Unique_Benefits.svg" data-name="Unique Benefits.svg" class="cls-1" d="M2345.38,2063.01h-22.75a1.673,1.673,0,0,1-1.67-1.67v-18.29h-18.28a1.667,1.667,0,0,1-1.67-1.67v-22.76a1.667,1.667,0,0,1,1.67-1.67h18.28v-18.29a1.673,1.673,0,0,1,1.67-1.67h22.75a1.673,1.673,0,0,1,1.67,1.67v18.29h18.29a1.664,1.664,0,0,1,1.66,1.67v22.76a1.664,1.664,0,0,1-1.66,1.67h-18.29v18.29A1.673,1.673,0,0,1,2345.38,2063.01Zm-21.08-3.34h19.41v-18.29a1.673,1.673,0,0,1,1.67-1.67h18.29v-19.42h-18.29a1.673,1.673,0,0,1-1.67-1.67v-18.29H2324.3v18.29a1.673,1.673,0,0,1-1.67,1.67h-18.29v19.42h18.29a1.673,1.673,0,0,1,1.67,1.67v18.29Z" transform="translate(-2301 -1997)"/>
</svg>
