<?xml version="1.0" encoding="UTF-8" standalone="no"?>
<!-- Created with Inkscape (http://www.inkscape.org/) -->

<svg
   xmlns:dc="http://purl.org/dc/elements/1.1/"
   xmlns:cc="http://creativecommons.org/ns#"
   xmlns:rdf="http://www.w3.org/1999/02/22-rdf-syntax-ns#"
   xmlns:svg="http://www.w3.org/2000/svg"
   xmlns="http://www.w3.org/2000/svg"
   xmlns:sodipodi="http://sodipodi.sourceforge.net/DTD/sodipodi-0.dtd"
   xmlns:inkscape="http://www.inkscape.org/namespaces/inkscape"
   width="162.14474mm"
   height="28.202803mm"
   viewBox="0 0 162.14474 28.202803"
   version="1.1"
   id="svg239"
   inkscape:version="0.92.0 r"
   sodipodi:docname="logo.svg">
  <defs
     id="defs233">
    <clipPath
       clipPathUnits="userSpaceOnUse"
       id="clipPath18">
      <path
         d="M 0,612 H 792 V 0 H 0 Z"
         id="path16"
         inkscape:connector-curvature="0" />
    </clipPath>
  </defs>
  <sodipodi:namedview
     id="base"
     pagecolor="#ffffff"
     bordercolor="#666666"
     borderopacity="1.0"
     inkscape:pageopacity="0.0"
     inkscape:pageshadow="2"
     inkscape:zoom="1.979899"
     inkscape:cx="306.41525"
     inkscape:cy="179.01092"
     inkscape:document-units="mm"
     inkscape:current-layer="layer1"
     showgrid="false"
     inkscape:window-width="3200"
     inkscape:window-height="1671"
     inkscape:window-x="0"
     inkscape:window-y="55"
     inkscape:window-maximized="1" />
  <metadata
     id="metadata236">
    <rdf:RDF>
      <cc:Work
         rdf:about="">
        <dc:format>image/svg+xml</dc:format>
        <dc:type
           rdf:resource="http://purl.org/dc/dcmitype/StillImage" />
        <dc:title></dc:title>
      </cc:Work>
    </rdf:RDF>
  </metadata>
  <g
     inkscape:label="Layer 1"
     inkscape:groupmode="layer"
     id="layer1"
     transform="translate(-24.760965,-167.99384)">
    <g
       transform="matrix(0.35277777,0,0,-0.35277777,-33.897265,290.09029)"
       id="g14"
       clip-path="url(#clipPath18)">
      <g
         id="g20"
         transform="translate(503.2372,311.509)">
        <path
           d="m 0,0 c 3.098,-0.578 5.16,-3.577 4.61,-6.706 -0.553,-3.123 -3.503,-5.187 -6.595,-4.612 -3.098,0.576 -5.159,3.577 -4.611,6.7 C -6.045,-1.489 -3.095,0.577 0,0"
           style="fill:#f98e2b;fill-opacity:1;fill-rule:nonzero;stroke:none"
           id="path22"
           inkscape:connector-curvature="0" />
      </g>
      <g
         id="g24"
         transform="translate(506.7266,296.5335)">
        <path
           d="M 0,0 C 2.322,-0.439 3.874,-2.691 3.461,-5.042 3.045,-7.393 0.826,-8.946 -1.499,-8.513 -3.82,-8.077 -5.373,-5.822 -4.96,-3.47 -4.549,-1.12 -2.328,0.435 0,0"
           style="fill:#f98e2b;fill-opacity:1;fill-rule:nonzero;stroke:none"
           id="path26"
           inkscape:connector-curvature="0" />
      </g>
      <g
         id="g28"
         transform="translate(506.1534,282.388)">
        <path
           d="M 0,0 C 1.666,-0.308 2.769,-1.919 2.471,-3.601 2.179,-5.279 0.596,-6.386 -1.072,-6.077 -2.731,-5.77 -3.836,-4.156 -3.54,-2.475 -3.249,-0.802 -1.659,0.311 0,0"
           style="fill:#f98e2b;fill-opacity:1;fill-rule:nonzero;stroke:none"
           id="path30"
           inkscape:connector-curvature="0" />
      </g>
      <g
         id="g32"
         transform="translate(502.5338,270.5326)">
        <path
           d="m 0,0 c 1.189,-0.224 1.984,-1.371 1.769,-2.572 -0.21,-1.2 -1.345,-1.99 -2.529,-1.768 -1.187,0.221 -1.98,1.371 -1.767,2.57 C -2.319,-0.57 -1.184,0.221 0,0"
           style="fill:#f98e2b;fill-opacity:1;fill-rule:nonzero;stroke:none"
           id="path34"
           inkscape:connector-curvature="0" />
      </g>
      <g
         id="g36"
         transform="translate(497.6246,315.6682)">
        <path
           d="M 0,0 C 2.326,-0.436 4.546,1.114 4.961,3.466 5.374,5.818 3.822,8.073 1.501,8.507 -0.827,8.942 -3.049,7.389 -3.463,5.041 -3.874,2.691 -2.325,0.433 0,0"
           style="fill:#f98e2b;fill-opacity:1;fill-rule:nonzero;stroke:none"
           id="path38"
           inkscape:connector-curvature="0" />
      </g>
      <g
         id="g40"
         transform="translate(498.5922,330.2883)">
        <path
           d="M 0,0 C 1.661,-0.311 3.246,0.8 3.539,2.481 3.839,4.158 2.733,5.77 1.071,6.078 -0.591,6.395 -2.179,5.281 -2.472,3.604 -2.773,1.924 -1.659,0.314 0,0"
           style="fill:#f98e2b;fill-opacity:1;fill-rule:nonzero;stroke:none"
           id="path42"
           inkscape:connector-curvature="0" />
      </g>
      <g
         id="g44"
         transform="translate(501.9395,341.7215)">
        <path
           d="M 0,0 C 1.187,-0.221 2.321,0.57 2.536,1.771 2.743,2.967 1.95,4.117 0.766,4.342 -0.422,4.562 -1.556,3.77 -1.767,2.574 -1.982,1.371 -1.193,0.218 0,0"
           style="fill:#f98e2b;fill-opacity:1;fill-rule:nonzero;stroke:none"
           id="path46"
           inkscape:connector-curvature="0" />
      </g>
      <g
         id="g48"
         transform="translate(174.4193,315.7608)">
        <path
           d="m 0,0 v -20.164 h 4.072 v -3.927 H -8.144 v 3.927 h 3.879 V 3.879 h -3.879 v 3.928 h 7.66 L 16.772,-14.687 V 3.879 H 12.7 V 7.807 H 24.77 V 3.879 h -3.732 v -28.068 l -2.424,-0.049 z"
           style="fill:#003a70;fill-opacity:1;fill-rule:nonzero;stroke:none"
           id="path50"
           inkscape:connector-curvature="0" />
      </g>
      <g
         id="g52"
         transform="translate(216.2712,302.0908)">
        <path
           d="m 0,0 c 0,4.265 -2.714,7.319 -6.591,7.319 -3.928,0 -6.642,-3.054 -6.642,-7.319 0,-4.265 2.714,-7.27 6.642,-7.27 C -2.714,-7.27 0,-4.265 0,0 m -17.498,0 c 0,5.867 4.265,10.86 10.907,10.86 C 0.049,10.86 4.314,5.916 4.314,0 4.314,-5.815 0,-10.808 -6.591,-10.808 c -6.691,0 -10.907,4.945 -10.907,10.808"
           style="fill:#003a70;fill-opacity:1;fill-rule:nonzero;stroke:none"
           id="path54"
           inkscape:connector-curvature="0" />
      </g>
      <g
         id="g56"
         transform="translate(240.5334,309.8974)">
        <path
           d="m 0,0 c 0,-1.504 -1.212,-2.814 -2.667,-2.814 -1.405,0 -2.375,0.875 -2.763,1.794 -1.551,-0.484 -3.344,-2.229 -4.363,-4.217 v -9.502 h 3.83 v -3.489 h -11.198 v 3.489 h 3.249 v 13.816 h -3.249 v 3.586 h 7.224 v -4.749 c 1.648,2.859 4.072,5.14 6.495,5.14 C -1.163,3.054 0,1.647 0,0"
           style="fill:#003a70;fill-opacity:1;fill-rule:nonzero;stroke:none"
           id="path58"
           inkscape:connector-curvature="0" />
      </g>
      <g
         id="g60"
         transform="translate(247.2143,293.8979)">
        <path
           d="m 0,0 c -0.386,0.825 -0.63,1.891 -0.63,3.054 v 12.023 h -3.926 v 3.586 h 3.926 v 4.802 l 4.169,1.695 v -6.497 h 6.35 V 15.077 H 3.539 V 3.781 C 3.539,3.102 3.637,2.618 3.83,2.183 4.218,1.504 4.993,1.167 6.205,1.167 c 1.26,0 2.763,0.581 3.974,1.163 L 9.744,-1.403 C 8.532,-2.033 6.981,-2.615 5.042,-2.615 2.716,-2.615 0.921,-1.793 0,0"
           style="fill:#003a70;fill-opacity:1;fill-rule:nonzero;stroke:none"
           id="path62"
           inkscape:connector-curvature="0" />
      </g>
      <g
         id="g64"
         transform="translate(260.3066,323.5674)">
        <path
           d="m 0,0 v 3.586 h 7.418 v -18.081 c 1.987,2.134 4.459,3.879 7.417,3.879 2.374,0 4.168,-0.826 5.235,-2.232 0.921,-1.212 1.405,-2.859 1.405,-4.798 v -10.763 h 3.248 v -3.489 H 14.205 v 3.489 h 3.102 v 9.844 c 0,1.354 -0.291,2.277 -0.825,2.956 -0.631,0.772 -1.598,1.162 -2.859,1.162 -2.279,0 -4.46,-1.358 -6.205,-3.151 v -10.811 h 3.103 v -3.489 H 0 v 3.489 H 3.249 V 0 Z"
           style="fill:#003a70;fill-opacity:1;fill-rule:nonzero;stroke:none"
           id="path66"
           inkscape:connector-curvature="0" />
      </g>
      <g
         id="g68"
         transform="translate(312.6574,305.9703)">
        <path
           d="M 0,0 -5.042,13.914 -10.082,0 Z m -21.184,-10.373 h 2.909 l 8.872,24.092 h -3.539 v 3.879 H 3.054 v -3.879 h -3.587 l 8.87,-24.092 h 2.958 V -14.3 H -0.049 v 3.879 H 3.635 L 1.26,-3.684 h -12.602 l -2.377,-6.737 H -9.84 V -14.3 h -11.344 z"
           style="fill:#003a70;fill-opacity:1;fill-rule:nonzero;stroke:none"
           id="path70"
           inkscape:connector-curvature="0" />
      </g>
      <g
         id="g72"
         transform="translate(326.5318,295.1589)">
        <path
           d="M 0,0 H 3.249 V 13.816 H 0 v 3.587 h 7.223 v -3.636 c 1.745,2.037 4.314,4.026 7.368,4.026 2.423,0 4.072,-0.923 5.091,-2.375 0.29,-0.439 0.483,-0.923 0.63,-1.455 2.132,2.13 4.702,3.83 7.367,3.83 3.005,0 4.847,-1.118 5.817,-3.005 0.534,-1.118 0.825,-2.472 0.825,-3.977 V 0 h 3.247 V -3.489 H 27.049 V 0 h 3.103 v 9.889 c 0,0.971 -0.147,1.748 -0.389,2.378 -0.484,1.163 -1.453,1.696 -2.956,1.696 -2.132,0 -4.121,-1.261 -5.963,-3.054 V 0 h 3.054 V -3.489 H 13.572 V 0 h 3.103 v 9.889 c 0,0.971 -0.096,1.748 -0.338,2.378 -0.534,1.163 -1.455,1.696 -2.958,1.696 -2.23,0 -4.216,-1.358 -6.011,-3.103 V 0 h 3.055 V -3.489 H 0 Z"
           style="fill:#003a70;fill-opacity:1;fill-rule:nonzero;stroke:none"
           id="path74"
           inkscape:connector-curvature="0" />
      </g>
      <g
         id="g76"
         transform="translate(370.0442,303.8845)">
        <path
           d="M 0,0 H 11.682 C 11.489,3.346 9.453,5.623 5.914,5.623 3.102,5.623 0.533,3.781 0,0 m 0,-3.102 c 0.581,-3.973 3.491,-5.913 7.563,-5.913 2.665,0 4.944,0.826 7.416,2.229 l -0.339,-3.83 c -2.182,-1.355 -4.849,-1.985 -7.707,-1.985 -6.74,0 -11.296,4.363 -11.296,10.759 0,5.867 4.023,10.909 10.375,10.909 6.446,0 9.839,-4.607 9.839,-9.937 0,-0.777 -0.097,-1.602 -0.193,-2.232 z"
           style="fill:#003a70;fill-opacity:1;fill-rule:nonzero;stroke:none"
           id="path78"
           inkscape:connector-curvature="0" />
      </g>
      <g
         id="g80"
         transform="translate(406.6012,309.898)">
        <path
           d="m 0,0 c 0,-1.504 -1.212,-2.814 -2.667,-2.814 -1.405,0 -2.375,0.875 -2.763,1.794 -1.551,-0.484 -3.344,-2.229 -4.363,-4.217 v -9.502 h 3.83 v -3.489 h -11.198 v 3.489 h 3.249 v 13.816 h -3.249 v 3.586 h 7.224 v -4.749 c 1.648,2.859 4.072,5.14 6.495,5.14 C -1.163,3.054 0,1.647 0,0"
           style="fill:#003a70;fill-opacity:1;fill-rule:nonzero;stroke:none"
           id="path82"
           inkscape:connector-curvature="0" />
      </g>
      <g
         id="g84"
         transform="translate(411.0204,320.0267)">
        <path
           d="M 0,0 C 0,1.651 1.405,3.005 3.054,3.005 4.654,3.005 6.058,1.651 6.058,0 6.058,-1.696 4.605,-3.054 3.005,-3.054 1.356,-3.054 0,-1.696 0,0 m -1.988,-24.868 h 3.393 v 13.816 h -3.393 v 3.587 h 7.563 v -17.403 h 3.344 v -3.489 H -1.988 Z"
           style="fill:#003a70;fill-opacity:1;fill-rule:nonzero;stroke:none"
           id="path86"
           inkscape:connector-curvature="0" />
      </g>
      <g
         id="g88"
         transform="translate(421.6223,302.1889)">
        <path
           d="m 0,0 c 0,5.623 4.507,10.763 10.47,10.763 5.186,0 8.968,-3.395 8.968,-6.595 0,-1.842 -1.261,-3.103 -2.956,-3.103 -1.358,0 -2.619,1.07 -2.619,2.619 0,0.679 0.34,1.358 0.872,1.744 -0.484,0.972 -2.228,1.891 -4.265,1.891 -2.812,0 -6.253,-2.375 -6.253,-7.417 0,-4.314 3.151,-7.221 7.465,-7.221 2.423,0 4.605,0.728 7.174,2.228 l -0.388,-3.83 c -2.133,-1.354 -4.605,-1.984 -7.173,-1.984 C 4.798,-10.905 0,-6.449 0,0"
           style="fill:#003a70;fill-opacity:1;fill-rule:nonzero;stroke:none"
           id="path90"
           inkscape:connector-curvature="0" />
      </g>
      <g
         id="g92"
         transform="translate(458.712,296.907)">
        <path
           d="m 0,0 v 3.391 c -1.407,0.387 -3.2,0.728 -5.091,0.728 -2.956,0 -4.604,-1.407 -4.604,-3.444 0,-1.887 1.404,-3.147 3.83,-3.147 2.228,0 4.265,1.065 5.865,2.472 m -13.912,0.338 c 0,3.83 3.393,6.302 8.191,6.302 2.182,0 4.605,-0.484 5.721,-0.825 v 2.374 c 0,1.212 -0.34,2.183 -0.921,2.911 -0.872,1.066 -2.328,1.598 -4.363,1.598 -1.309,0 -2.084,-0.289 -2.714,-0.63 0.145,-0.338 0.242,-0.776 0.242,-1.163 0,-1.358 -1.018,-2.374 -2.423,-2.374 -1.456,0 -2.472,1.016 -2.472,2.472 0,2.472 2.714,5.042 8.046,5.042 3.247,0 5.622,-0.972 7.028,-2.619 1.066,-1.26 1.6,-2.907 1.6,-4.798 V -1.748 H 7.27 V -5.237 H 0.096 v 2.521 c -1.696,-1.598 -4.361,-2.907 -7.173,-2.907 -3.83,0 -6.835,2.179 -6.835,5.961"
           style="fill:#003a70;fill-opacity:1;fill-rule:nonzero;stroke:none"
           id="path94"
           inkscape:connector-curvature="0" />
      </g>
      <g
         id="g96"
         transform="translate(476.0265,308.9264)">
        <path
           d="m 0,0 c 1.988,2.135 4.605,4.025 7.61,4.025 2.618,0 4.411,-1.02 5.479,-2.667 0.678,-1.163 1.065,-2.618 1.065,-4.363 v -10.762 h 3.249 v -3.489 H 6.884 v 3.489 h 3.102 v 9.843 c 0,1.017 -0.146,1.842 -0.486,2.472 -0.581,1.114 -1.6,1.647 -3.102,1.647 -2.277,0 -4.459,-1.358 -6.254,-3.151 v -10.811 h 3.103 v -3.489 h -10.47 v 3.489 h 3.248 V 0.049 H -7.223 V 3.635 H 0 Z"
           style="fill:#003a70;fill-opacity:1;fill-rule:nonzero;stroke:none"
           id="path98"
           inkscape:connector-curvature="0" />
      </g>
      <g
         id="g100"
         transform="translate(513.2296,298.0659)">
        <path
           d="m 0,0 c 0,2.033 1.212,3.342 2.909,3.342 1.745,0 2.909,-1.309 2.909,-2.663 0,-0.874 -0.243,-1.504 -0.63,-2.086 1.114,-0.968 3.247,-1.695 5.817,-1.695 3.877,0 6.349,1.89 6.349,5.041 0,3.005 -2.908,4.408 -6.301,5.669 -5.72,2.134 -9.841,4.074 -9.841,9.746 0,4.993 3.976,8.725 10.132,8.725 5.575,0 9.937,-3.008 9.937,-6.546 0,-1.988 -1.26,-3.151 -2.811,-3.151 -1.842,0 -2.958,1.358 -2.958,2.814 0,0.776 0.244,1.26 0.534,1.695 -0.874,0.777 -2.762,1.358 -4.751,1.358 -3.539,0 -5.672,-1.89 -5.672,-4.558 0,-3.053 2.861,-4.362 6.496,-5.769 5.479,-2.033 9.598,-4.022 9.598,-9.645 0,-5.818 -4.556,-9.258 -10.81,-9.258 C 4.654,-6.981 0,-3.444 0,0"
           style="fill:#003a70;fill-opacity:1;fill-rule:nonzero;stroke:none"
           id="path102"
           inkscape:connector-curvature="0" />
      </g>
      <g
         id="g104"
         transform="translate(557.0758,302.1849)">
        <path
           d="m 0,0 c 0,4.363 -2.665,7.128 -6.205,7.128 -2.374,0 -4.168,-1.118 -5.719,-2.668 V -5.282 C -10.47,-6.449 -8.628,-7.27 -6.302,-7.27 -2.763,-7.27 0,-4.412 0,0 m -19.342,-16.529 h 3.249 V 6.786 h -3.249 v 3.587 h 7.223 V 7.66 c 1.746,1.793 3.684,3.103 6.691,3.103 5.477,0 9.742,-4.363 9.742,-10.714 0,-6.01 -4.216,-10.954 -10.131,-10.954 -2.374,0 -4.46,0.87 -6.107,2.228 v -7.852 h 3.733 v -3.492 h -11.151 z"
           style="fill:#003a70;fill-opacity:1;fill-rule:nonzero;stroke:none"
           id="path106"
           inkscape:connector-curvature="0" />
      </g>
      <g
         id="g108"
         transform="translate(566.2613,320.0227)">
        <path
           d="M 0,0 C 0,1.651 1.405,3.005 3.054,3.005 4.654,3.005 6.058,1.651 6.058,0 6.058,-1.696 4.605,-3.054 3.005,-3.054 1.356,-3.054 0,-1.696 0,0 m -1.988,-24.868 h 3.393 v 13.816 h -3.393 v 3.587 h 7.563 v -17.403 h 3.344 v -3.489 H -1.988 Z"
           style="fill:#003a70;fill-opacity:1;fill-rule:nonzero;stroke:none"
           id="path110"
           inkscape:connector-curvature="0" />
      </g>
      <g
         id="g112"
         transform="translate(585.8003,308.9224)">
        <path
           d="m 0,0 c 1.988,2.135 4.605,4.025 7.61,4.025 2.618,0 4.411,-1.02 5.479,-2.667 0.679,-1.163 1.065,-2.618 1.065,-4.363 v -10.763 h 3.249 v -3.488 H 6.884 v 3.488 h 3.102 v 9.844 c 0,1.017 -0.146,1.842 -0.486,2.472 -0.581,1.114 -1.6,1.647 -3.102,1.647 -2.277,0 -4.459,-1.358 -6.254,-3.151 v -10.812 h 3.103 v -3.488 h -10.47 v 3.488 h 3.248 V 0.049 H -7.223 V 3.635 H 0 Z"
           style="fill:#003a70;fill-opacity:1;fill-rule:nonzero;stroke:none"
           id="path114"
           inkscape:connector-curvature="0" />
      </g>
      <g
         id="g116"
         transform="translate(610.0472,303.8806)">
        <path
           d="M 0,0 H 11.682 C 11.489,3.346 9.453,5.623 5.914,5.623 3.102,5.623 0.533,3.781 0,0 m 0,-3.102 c 0.581,-3.973 3.491,-5.913 7.563,-5.913 2.665,0 4.944,0.826 7.416,2.229 l -0.339,-3.83 c -2.182,-1.355 -4.849,-1.985 -7.708,-1.985 -6.739,0 -11.295,4.363 -11.295,10.759 0,5.867 4.023,10.909 10.375,10.909 6.446,0 9.839,-4.607 9.839,-9.937 0,-0.777 -0.097,-1.602 -0.193,-2.232 z"
           style="fill:#003a70;fill-opacity:1;fill-rule:nonzero;stroke:none"
           id="path118"
           inkscape:connector-curvature="0" />
      </g>
    </g>
  </g>
</svg>
