<?xml version="1.0" encoding="utf-8"?>
<!-- Generator: Adobe Illustrator 21.1.0, SVG Export Plug-In . SVG Version: 6.00 Build 0)  -->
<svg version="1.1" id="Layer_1" xmlns="http://www.w3.org/2000/svg" xmlns:xlink="http://www.w3.org/1999/xlink" x="0px" y="0px"
	 viewBox="0 0 36 36" style="enable-background:new 0 0 36 36;" xml:space="preserve">
<style type="text/css">
	.st0{fill:none;stroke:#FFF;stroke-width:1.44;stroke-linecap:round;stroke-linejoin:round;}
</style>
<title>Asset 3</title>
<g id="Layer_2">
	<g id="Layer_1-2">
		<path class="st0" d="M28,16c0.2-1.1,0.1-2.3-0.2-3.4c-0.4-1.3-1.1-2.4-2-3.3c-0.9-0.9-2.1-1.5-3.4-1.8c-0.7-0.1-1.5-0.1-2.2,0.1"
			/>
		<path class="st0" d="M33.4,18.7c0.9-2.7,0.9-5.6,0-8.2c-0.6-1.9-1.7-3.7-3.1-5.2c-1.4-1.5-3.1-2.6-5-3.2c-2.2-0.7-4.6-0.7-6.8,0"
			/>
		<path class="st0" d="M10.8,12.8c-1.7,1.7-1.2,5.5,1.3,8.8s6,4.8,8.1,3.5"/>
		<path class="st0" d="M25.9,32.4c-0.6,0.6-1.3,1.1-2,1.6c-2.9,2.1-9.7-1.9-15.6-9.6S0.4,9,3.1,6.8c0.6-0.6,1.3-1.1,2-1.5"/>
		<path class="st0" d="M26.5,31.3L21,24.2c-0.3-0.4-0.2-1,0.2-1.3c0,0,0,0,0,0l2.5-1.9c0.4-0.3,1-0.2,1.3,0.2c0,0,0,0,0,0l5.5,7.1
			c0.3,0.4,0.2,1-0.2,1.3c0,0,0,0,0,0l-2.5,1.9C27.4,31.8,26.8,31.8,26.5,31.3C26.5,31.3,26.5,31.3,26.5,31.3L26.5,31.3z"/>
		<path class="st0" d="M11.7,12.1L6.3,5C6,4.6,6,4,6.4,3.7l2.5-1.9c0.4-0.3,1-0.2,1.3,0.2c0,0,0,0,0,0l5.5,7.1
			c0.3,0.4,0.2,1-0.2,1.3c0,0,0,0,0,0l-2.5,1.9C12.7,12.6,12.1,12.5,11.7,12.1C11.8,12.1,11.8,12.1,11.7,12.1L11.7,12.1z"/>
	</g>
</g>
</svg>
